<?xml version="1.0" encoding="utf-8"?>
<!-- Generator: Adobe Illustrator 21.0.0, SVG Export Plug-In . SVG Version: 6.00 Build 0)  -->
<svg version="1.1" id="Layer_1" xmlns="http://www.w3.org/2000/svg" xmlns:xlink="http://www.w3.org/1999/xlink" x="0px" y="0px"
	 viewBox="0 0 180 324" style="enable-background:new 0 0 180 324;" xml:space="preserve">
<style type="text/css">
	.st0{fill:none;stroke:#000000;stroke-miterlimit:10;}
</style>
<g id="Layer_4">
	<path class="st0" d="M100.2,109.8c0,0,2.6-27.1,26.2-23.5C127.4,85.8,120.2,101.2,100.2,109.8z"/>
	<path class="st0" d="M85.1,110.4c0,0-16.4-11.9-25.2-26.5C66.1,80.9,86.4,88.1,85.1,110.4z"/>
	<path class="st0" d="M113.4,88.6c-1,14.2-11,12.4-11,12.4"/>
	<line class="st0" x1="68.6" y1="100.1" x2="65.6" y2="103"/>
	<line class="st0" x1="67.1" y1="96.8" x2="63.1" y2="99.1"/>
	<line class="st0" x1="64.4" y1="94.9" x2="60.6" y2="95.8"/>
	<line class="st0" x1="119.6" y1="100.1" x2="121.6" y2="103"/>
	<line class="st0" x1="121.6" y1="97.8" x2="124.2" y2="100.1"/>
	<line class="st0" x1="123.8" y1="95.3" x2="126.6" y2="97.8"/>
	<path class="st0" d="M67.1,93.7c0,0,6.2,1,8.5-5.8"/>
	<polygon class="st0" points="101,96.8 97.2,93.7 108.6,78.2 112.8,82.4 	"/>
	<polygon class="st0" points="87.4,96.6 74,79.2 78.9,76.6 89.8,90.2 	"/>
</g>
</svg>
