<?xml version="1.0" encoding="utf-8"?>
<!-- Generator: Adobe Illustrator 21.0.0, SVG Export Plug-In . SVG Version: 6.00 Build 0)  -->
<svg version="1.1" id="Layer_4" xmlns="http://www.w3.org/2000/svg" xmlns:xlink="http://www.w3.org/1999/xlink" x="0px" y="0px"
	 viewBox="0 0 180 324" style="enable-background:new 0 0 180 324;" xml:space="preserve">
<style type="text/css">
	.st0{fill:none;stroke:#000000;stroke-width:2;stroke-linecap:round;stroke-linejoin:round;stroke-miterlimit:10;}
</style>
<g>
	<path class="st0" d="M70.2,200.5c-0.8-2.4-1.6-4.8-2.5-7.4c-0.4,0.5-0.6,0.7-0.6,0.9c-0.1,2.2-0.2,4.5-0.3,6.7"/>
	<path class="st0" d="M74,200.8c-0.2-2.1-0.3-4.2-0.5-6.2c0-0.4-0.1-0.7-0.1-1.1c-0.1,0-0.2-0.1-0.4-0.1c-0.9,2.3-1.8,4.5-2.6,6.8"
		/>
	<path class="st0" d="M91.3,195.5c1,0.2,1.8,0.8,2,1.8c0.2,1.1,0.1,2.2-0.9,3c-0.8,0.6-1.6,0.6-2.4,0.1c-1.1-0.6-1.2-1.7-1.1-2.9
		c0.2-1.4,1.1-1.9,2.3-2"/>
	<path class="st0" d="M112.1,197.9c-0.6,0-1.2,0.1-1.8,0.1c-0.8,0.1-1.4,0.5-1.5,1.2c-0.1,0.4,0.2,1.2,0.5,1.2c0.6,0.1,1.4,0,2-0.1
		c0.3,0,0.6-0.3,0.8-0.5"/>
	<path class="st0" d="M79.7,197.9c-0.6,0-1.2,0.1-1.8,0.1c-0.8,0.1-1.4,0.5-1.5,1.2c-0.1,0.4,0.2,1.2,0.5,1.2c0.6,0.1,1.4,0,2-0.1
		c0.3,0,0.6-0.3,0.8-0.5"/>
	<path class="st0" d="M102.7,196.6c0.7-0.5,1.3-1.2,2.3-0.9c0.8,0.2,1.4,0.7,1.3,1.7c0,1.1,0,2.2,0,3.4"/>
	<path class="st0" d="M96.2,196.6c0.7-0.5,1.3-1.2,2.3-0.9c0.8,0.2,1.4,0.7,1.3,1.7c0,1.1,0,2.2,0,3.4"/>
	<path class="st0" d="M102.4,195.5c0,1.7,0.1,3.4,0.1,5.2"/>
	<path class="st0" d="M95.9,195.5c0,1.7,0.1,3.4,0.1,5.2"/>
	<path class="st0" d="M80,200.8c0-1-0.1-2.1-0.1-3.1c-0.1-1.7-1.2-2.5-2.9-2c-0.2,0.1-0.4,0.2-0.6,0.2"/>
	<path class="st0" d="M112.4,200.8c0-1-0.1-2.1-0.1-3.1c-0.1-1.7-1.2-2.5-2.9-2c-0.2,0.1-0.4,0.2-0.6,0.2"/>
	<path class="st0" d="M86.4,193c0,2.6,0.1,5.2,0.1,7.8"/>
	<path class="st0" d="M86.2,196.3c-0.9-0.3-1.6-1.2-3.2-0.3c-1.5,1.3-1.4,3.5,1.1,4.8c0.6-0.4,1.3-0.8,2.1-1.2"/>
</g>
</svg>
