<?xml version="1.0" encoding="utf-8"?>
<!-- Generator: Adobe Illustrator 21.0.0, SVG Export Plug-In . SVG Version: 6.00 Build 0)  -->
<svg version="1.1" id="Layer_4" xmlns="http://www.w3.org/2000/svg" xmlns:xlink="http://www.w3.org/1999/xlink" x="0px" y="0px"
	 viewBox="0 0 180 324" style="enable-background:new 0 0 180 324;" xml:space="preserve">
<style type="text/css">
	.st0{fill:none;stroke:#000000;stroke-width:2;stroke-linecap:round;stroke-linejoin:round;stroke-miterlimit:10;}
</style>
<g>
	<path class="st0" d="M84.7,193c0,2.6,0,5.1,0,7.7"/>
	<path class="st0" d="M81.7,193.6c-2.4-0.4-3.8,0.1-4.7,1.7c-0.8,1.5-0.5,3.6,0.6,4.6s3.2,1.2,4.4,0.4c0-0.9,0-1.8,0-2.8
		c-0.5,0-1,0-1.5,0"/>
	<path class="st0" d="M89.6,195.5c1,0.2,1.8,0.8,2,1.8c0.2,1.1,0.1,2.2-0.9,3c-0.8,0.6-1.6,0.6-2.4,0.1c-1.1-0.6-1.2-1.7-1.1-2.9
		C87.4,196.1,88.3,195.6,89.6,195.5"/>
	<path class="st0" d="M98.3,196.7c0.2-0.2,0.5-0.4,0.7-0.6c1.4-1,3.1-0.6,3.4,1.2c0.4,2.2-0.5,3.6-2.5,3.3c-0.5-0.1-1-0.5-1.6-0.7"
		/>
	<path class="st0" d="M94,195.5c0,1.7,0.1,3.4,0.1,5.2"/>
	<path class="st0" d="M98,195.5c0,2.5,0.1,5,0.1,7.6"/>
	<path class="st0" d="M96,195.2c-0.6,0.5-1.1,1-1.7,1.6"/>
</g>
</svg>
