<?xml version="1.0" encoding="utf-8"?>
<!-- Generator: Adobe Illustrator 21.0.0, SVG Export Plug-In . SVG Version: 6.00 Build 0)  -->
<svg version="1.1" id="Layer_4" xmlns="http://www.w3.org/2000/svg" xmlns:xlink="http://www.w3.org/1999/xlink" x="0px" y="0px"
	 viewBox="0 0 180 324" style="enable-background:new 0 0 180 324;" xml:space="preserve">
<style type="text/css">
	.st0{fill:none;stroke:#000000;stroke-width:2;stroke-linecap:round;stroke-linejoin:round;stroke-miterlimit:10;}
</style>
<g>
	<path class="st0" d="M74.2,197c0.4-0.3,0.7-0.6,1.1-1c0.4-2.4-1.1-3.4-3.7-2.4c0,2.3,0,4.6,0,7"/>
	<path class="st0" d="M86.8,195.5c1,0.2,1.8,0.8,2,1.8c0.2,1.1,0.1,2.2-0.9,3c-0.8,0.6-1.6,0.6-2.4,0.1c-1.1-0.6-1.2-1.7-1.1-2.9
		c0.2-1.4,1.1-1.9,2.3-2"/>
	<path class="st0" d="M76,200.9c-0.7-0.1-0.7-0.7-0.7-1.1c-0.1-1.2-0.6-2-1.6-2.6c-0.7,0-1.3,0-1.9,0"/>
	<path class="st0" d="M107.5,197.9c-0.6,0-1.2,0.1-1.8,0.1c-0.8,0.1-1.4,0.5-1.5,1.2c-0.1,0.4,0.2,1.2,0.5,1.2c0.6,0.1,1.4,0,2-0.1
		c0.3,0,0.6-0.3,0.8-0.5"/>
	<path class="st0" d="M78.1,196.4c0.2-0.1,0.6-0.1,0.7-0.3c0.6-0.7,1.3-0.7,2-0.4c0.8,0.3,1,1,1,1.8c0,1,0,2.1,0,3.1"/>
	<path class="st0" d="M91.7,196.6c0.7-0.5,1.3-1.2,2.3-0.9c0.8,0.2,1.4,0.7,1.3,1.7c0,1.1,0,2.2,0,3.4"/>
	<path class="st0" d="M91.3,195.5c0,1.7,0.1,3.4,0.1,5.2"/>
	<path class="st0" d="M107.9,200.8c0-1-0.1-2.1-0.1-3.1c-0.1-1.7-1.2-2.5-2.9-2c-0.2,0.1-0.4,0.2-0.6,0.2"/>
	<path class="st0" d="M101.8,193c0,2.6,0.1,5.2,0.1,7.8"/>
	<path class="st0" d="M78,193c0,2.6,0,5.1,0,7.7"/>
	<path class="st0" d="M101.5,196.3c-0.9-0.3-1.6-1.2-2.7-0.6c-2,1.6-1.9,3.9,0.6,5.2c0.6-0.4,1.3-0.8,2.1-1.2"/>
</g>
</svg>
