<?xml version="1.0" encoding="utf-8"?>
<!-- Generator: Adobe Illustrator 21.0.0, SVG Export Plug-In . SVG Version: 6.00 Build 0)  -->
<svg version="1.1" id="Layer_4" xmlns="http://www.w3.org/2000/svg" xmlns:xlink="http://www.w3.org/1999/xlink" x="0px" y="0px"
	 viewBox="0 0 180 324" style="enable-background:new 0 0 180 324;" xml:space="preserve">
<style type="text/css">
	.st0{fill:none;stroke:#000000;stroke-width:2;stroke-linecap:round;stroke-linejoin:round;stroke-miterlimit:10;}
</style>
<g>
	<path class="st0" d="M76.7,196.9c0.2-0.2,0.3-0.5,0.5-0.6c0.8-0.4,0.9-1.2,0.7-1.8c-0.2-0.5-0.9-0.9-1.4-1.1c-0.7-0.2-1.5,0-2.2,0
		c0,2.4,0,4.6,0,6.9c0.8,0.5,2.8,0.5,3.4-0.2c0.4-0.4,0.6-1.2,0.5-1.8c-0.2-0.9-1-1.3-1.9-1.4c-0.6-0.1-1.2,0-1.8,0"/>
	<path class="st0" d="M80.6,193c0,2.6,0,5.1,0,7.7"/>
	<path class="st0" d="M86.2,197.9c-0.6,0-1.2,0.1-1.8,0.1c-0.8,0.1-1.4,0.5-1.5,1.2c-0.1,0.4,0.2,1.2,0.5,1.2c0.6,0.1,1.4,0,2-0.1
		c0.3,0,0.6-0.3,0.8-0.5"/>
	<path class="st0" d="M101.4,196.4c0.2-0.1,0.6-0.1,0.7-0.3c0.6-0.7,1.3-0.7,2-0.4c0.8,0.3,1,1,1,1.8c0,1,0,2.1,0,3.1"/>
	<path class="st0" d="M89.5,196.6c0.7-0.5,1.3-1.2,2.3-0.9c0.8,0.2,1.4,0.7,1.3,1.7c0,1.1,0,2.2,0,3.4"/>
	<path class="st0" d="M89.2,195.5c0,1.7,0.1,3.4,0.1,5.2"/>
	<path class="st0" d="M86.5,200.8c0-1-0.1-2.1-0.1-3.1c-0.1-1.7-1.2-2.5-2.9-2c-0.2,0.1-0.4,0.2-0.6,0.2"/>
	<path class="st0" d="M101.3,193c0,2.6,0,5.1,0,7.7"/>
	<path class="st0" d="M98.9,195.6c-2.1-0.1-3.1,0.3-3.5,1.7c-0.3,0.9-0.1,2,0.6,2.7c0.6,0.6,2,0.8,2.9,0.5c0.1,0,0.1-0.2,0.1-0.2"/>
</g>
</svg>
